        -:    0:Source:/media/kikyy_99/HDD1/FaksHub/2022_2023/Diplomski_Bioinformatika/masters-thesis-hybrid-long-read-correction-and-de-novo-assembly/Base_FMIndex.cpp
        -:    0:Graph:/media/kikyy_99/HDD1/FaksHub/2022_2023/Diplomski_Bioinformatika/masters-thesis-hybrid-long-read-correction-and-de-novo-assembly/cmake-build-debug-coverage/CMakeFiles/SW_Project_Masters_Thesis.dir/Base_FMIndex.cpp.gcno
        -:    0:Data:/media/kikyy_99/HDD1/FaksHub/2022_2023/Diplomski_Bioinformatika/masters-thesis-hybrid-long-read-correction-and-de-novo-assembly/cmake-build-debug-coverage/CMakeFiles/SW_Project_Masters_Thesis.dir/Base_FMIndex.cpp.gcda
        -:    0:Runs:1
        -:    1://
        -:    2:// Created by kikyy_99 on 15.12.22..
        -:    3://
        -:    4:
        -:    5:#include "Base_FMIndex.h"
        -:    6:using namespace std;
        -:    7:
function _ZN12Base_FMIndex3occE8BasePairhm called 0 returned 0% blocks executed 0%
    #####:    8:my_size_t Base_FMIndex::occ(BasePair currBp, BasePair_underlying_type currBpInt, my_size_t bound) {
        -:    9:    /*
        -:   10:     * This function finds and returns the number of character occurences in
        -:   11:     * the bwt/L column in range B[0,bound]
        -:   12:     *
        -:   13:     * In order to do that, we have to take care of checkpoints and their spacing
        -:   14:     * 1. Find the closest checkpoint
        -:   15:     * 2. Increment/decrement number of chars on the way to it
        -:   16:     */
        -:   17:    // First find the closest checkpoint
    #####:   18:    my_size_t relativePos = bound % this->PARAMETER_B;
    #####:   19:    my_size_t closestChkptIndex = bound * this->PARAMETER_B_RATIO;
    #####:   20:    bool goUp = false;
        -:   21:
    #####:   22:    if((relativePos > this->PARAMETER_B_HALF) && (closestChkptIndex + 1 < this->occTally.size())) {
    %%%%%:   22-block  0
branch  0 never executed
branch  1 never executed
    %%%%%:   22-block  1
call    2 never executed
branch  3 never executed
branch  4 never executed
    %%%%%:   22-block  2
    %%%%%:   22-block  3
    %%%%%:   22-block  4
branch  5 never executed
branch  6 never executed
    #####:   23:        ++closestChkptIndex;
    #####:   24:        goUp = true;
    %%%%%:   24-block  0
        -:   25:    }
        -:   26:
        -:   27:    // Let's get the num of the selected char
    #####:   28:    my_size_t currBpNum = this->occTally[closestChkptIndex][currBpInt];
    %%%%%:   28-block  0
call    0 never executed
call    1 never executed
    #####:   29:    my_size_t bwtStartIndex = closestChkptIndex * this->PARAMETER_B;
    #####:   30:    if(goUp) {
branch  0 never executed
branch  1 never executed
    #####:   31:        for(my_size_t i = bwtStartIndex + 1; i <= bound; ++i) {
    %%%%%:   31-block  0
    %%%%%:   31-block  1
branch  0 never executed
branch  1 never executed
    #####:   32:            checkCharAndIncrementCounter(currBp, i, currBpNum);
    %%%%%:   32-block  0
call    0 never executed
        -:   33:        }
        -:   34:    } else {
    #####:   35:        for(my_size_t i = bound; i > bwtStartIndex; --i) {
    %%%%%:   35-block  0
    %%%%%:   35-block  1
branch  0 never executed
branch  1 never executed
    #####:   36:            checkCharAndIncrementCounter(currBp, i, currBpNum);
    %%%%%:   36-block  0
call    0 never executed
        -:   37:        }
        -:   38:    }
        -:   39:
    #####:   40:    return currBpNum;
    %%%%%:   40-block  0
        -:   41:}
        -:   42:
function _ZN12Base_FMIndex28checkCharAndIncrementCounterE8BasePairmRm called 0 returned 0% blocks executed 0%
    #####:   43:inline void Base_FMIndex::checkCharAndIncrementCounter(BasePair currBp, my_size_t bwtIndex, my_size_t& counter) {
    #####:   44:    if(this->bwt[bwtIndex] == currBp) {
    %%%%%:   44-block  0
call    0 never executed
branch  1 never executed
branch  2 never executed
    #####:   45:        ++counter;
    %%%%%:   45-block  0
        -:   46:    }
    #####:   47:}
        -:   48:
function _ZN12Base_FMIndex23fillVectorWithSASamplesERSt6vectorImSaImEEmm called 0 returned 0% blocks executed 0%
    #####:   49:void Base_FMIndex::fillVectorWithSASamples(vector<my_size_t> &toFill, my_size_t leftBound, my_size_t rightBound) {
        -:   50:    /*
        -:   51:     * We have to go [leftBound, rightBound], find for each one of them
        -:   52:     * their SA values(indices at which they are located in the source data basically)
        -:   53:     *
        -:   54:     * We will have to do that using SA, but more specifically -> using SA Samples
        -:   55:     */
        -:   56:    my_size_t SASampleIndex;
        -:   57:    my_size_t SASampleRemainder;
        -:   58:    BasePair bwtChar;
        -:   59:    my_size_t stepsMade;
        -:   60:    my_size_t currRowIndex;
    #####:   61:    for(my_size_t i = leftBound; i <= rightBound; i++) {
    %%%%%:   61-block  0
    %%%%%:   61-block  1
branch  0 never executed
branch  1 never executed
        -:   62:        // Check if the SA Sample contains the sample for the current row
    #####:   63:        currRowIndex = i;
    #####:   64:        SASampleIndex = currRowIndex * this->PARAMETER_A_RATIO;
    #####:   65:        SASampleRemainder = currRowIndex % this->PARAMETER_A;
    #####:   66:        stepsMade = 0;
        -:   67:
    #####:   68:        while(SASampleRemainder != 0) {
    %%%%%:   68-block  0
    %%%%%:   68-block  1
branch  0 never executed
branch  1 never executed
    #####:   69:            ++stepsMade;
    #####:   70:            bwtChar = this->bwt[currRowIndex];
    %%%%%:   70-block  0
call    0 never executed
    #####:   71:            currRowIndex = this->LFMapping(bwtChar, currRowIndex);
call    0 never executed
        -:   72:
    #####:   73:            SASampleIndex = currRowIndex * this->PARAMETER_A_RATIO;
    #####:   74:            SASampleRemainder = currRowIndex % this->PARAMETER_A;
        -:   75:        }
        -:   76:
    #####:   77:        toFill.emplace_back((this->SASample[SASampleIndex] + stepsMade) % this->parameterM);
    %%%%%:   77-block  0
call    0 never executed
call    1 never executed
branch  2 never executed
branch  3 never executed
    %%%%%:   77-block  1
        -:   78:    }
    #####:   79:}
    %%%%%:   79-block  0
        -:   80:
        -:   81:/**
        -:   82: * Find and return i-th occurence of the F-value for this L-Value
        -:   83: * In simple words: find this BWT character in the F column
        -:   84: *
        -:   85: * @param bwtBp current BWT character
        -:   86: * @param bwtIndex the index of the BWT character
        -:   87: * @return index of this character in the F column
        -:   88: */
function _ZN12Base_FMIndex9LFMappingE8BasePairm called 0 returned 0% blocks executed 0%
    #####:   89:inline my_size_t Base_FMIndex::LFMapping(BasePair bwtBp, my_size_t bwtIndex) {
    #####:   90:    return this->occ(bwtBp, static_cast<BasePair_underlying_type>(bwtBp), bwtIndex) + this->cumulativeCounts[static_cast<BasePair_underlying_type>(bwtBp)] - 1;
    %%%%%:   90-block  0
call    0 never executed
call    1 never executed
        -:   91:}
