\BOOKMARK [0][-]{chapter.1}{\376\377\000U\000v\000o\000d}{}% 1
\BOOKMARK [0][-]{chapter.2}{\376\377\000S\000e\000k\000v\000e\000n\000c\000i\000r\000a\000n\000j\000e\000\040\000g\000e\000n\000o\000m\000a}{}% 2
\BOOKMARK [0][-]{chapter.3}{\376\377\000S\000a\000s\000t\000a\000v\000l\000j\000a\000n\000j\000e\000\040\000g\000e\000n\000o\000m\000a}{}% 3
\BOOKMARK [1][-]{section.3.1}{\376\377\000D\000e\000\040\000n\000o\000v\000o\000\040\000s\000a\000s\000t\000a\000v\000l\000j\000a\000n\000j\000e\000\040\000g\000e\000n\000o\000m\000a}{chapter.3}% 4
\BOOKMARK [0][-]{chapter.4}{\376\377\000H\000i\000b\000r\000i\000d\000n\000e\000\040\000m\000e\000t\000o\000d\000e\000\040\000i\000s\000p\000r\000a\000v\000l\000j\000a\000n\000j\000a}{}% 5
\BOOKMARK [0][-]{chapter.5}{\376\377\000d\000e\000\040\000B\000r\000u\000i\000j\000n\000\040\000g\000r\000a\000f\000o\000v\000i}{}% 6
\BOOKMARK [0][-]{chapter.6}{\376\377\000F\000M\000-\000i\000n\000d\000e\000k\000s}{}% 7
\BOOKMARK [1][-]{section.6.1}{\376\377\000B\000W\000T}{chapter.6}% 8
\BOOKMARK [2][-]{subsection.6.1.1}{\376\377\000B\000W\000T\000\040\000i\000\040\000S\000A\000\040\000n\000a\000i\000v\000n\000o\000m\000\040\000m\000e\000t\000o\000d\000o\000m\000\040\000k\000o\000n\000s\000t\000r\000u\000k\000c\000i\000j\000e}{section.6.1}% 9
\BOOKMARK [2][-]{subsection.6.1.2}{\376\377\000B\000W\000T\000\040\000i\000\040\000S\000A\000\040\000p\000o\000m\000o\001\007\000u\000\040\000S\000A\000-\000I\000S\000\040\000a\000l\000g\000o\000r\000i\000t\000m\000a}{section.6.1}% 10
\BOOKMARK [2][-]{subsection.6.1.3}{\376\377\000A\000l\000g\000o\000r\000i\000t\000a\000m\000\040\000k\000o\000n\000s\000t\000r\000u\000k\000c\000i\000j\000e\000\040\000B\000W\000T\000\040\000i\000z\000\040\000S\000A}{section.6.1}% 11
\BOOKMARK [1][-]{section.6.2}{\376\377\000F\000M\000-\000i\000n\000d\000e\000k\000s\000\040\000u\000\040\000d\000u\000b\000i\000n\000u}{chapter.6}% 12
\BOOKMARK [0][-]{chapter.7}{\376\377\000F\000M\000L\000R\000C}{}% 13
\BOOKMARK [1][-]{section.7.1}{\376\377\000P\000r\000e\000g\000l\000e\000d\000\040\000s\000\040\000v\000i\000s\000o\000k\000e\000\040\000r\000a\000z\000i\000n\000e\000\040\000a\000p\000s\000t\000r\000a\000k\000c\000i\000j\000e}{chapter.7}% 14
\BOOKMARK [1][-]{section.7.2}{\376\377\000P\000r\000o\000c\000e\000s\000\040\000i\000s\000p\000r\000a\000v\000l\000j\000a\000n\000j\000a\000\040\000s\000\040\000k\000-\000m\000e\000r\000o\000m\000\040\000u\000\040\000d\000u\000b\000i\000n\000u}{chapter.7}% 15
\BOOKMARK [0][-]{chapter.8}{\376\377\000A\000n\000a\000l\000i\000z\000a\000\040\000i\000\040\000r\000e\000z\000u\000l\000t\000a\000t\000i}{}% 16
\BOOKMARK [0][-]{chapter.9}{\376\377\000Z\000a\000k\000l\000j\000u\001\015\000a\000k}{}% 17
\BOOKMARK [0][-]{chapter*.36}{\376\377\000L\000i\000t\000e\000r\000a\000t\000u\000r\000a}{}% 18
