\relax 
\providecommand\hyper@newdestlabel[2]{}
\providecommand\babel@aux[2]{}
\@nameuse{bbl@beforestart}
\providecommand\HyperFirstAtBeginDocument{\AtBeginDocument}
\HyperFirstAtBeginDocument{\ifx\hyper@anchor\@undefined
\global\let\oldcontentsline\contentsline
\gdef\contentsline#1#2#3#4{\oldcontentsline{#1}{#2}{#3}}
\global\let\oldnewlabel\newlabel
\gdef\newlabel#1#2{\newlabelxx{#1}#2}
\gdef\newlabelxx#1#2#3#4#5#6{\oldnewlabel{#1}{{#2}{#3}}}
\AtEndDocument{\ifx\hyper@anchor\@undefined
\let\contentsline\oldcontentsline
\let\newlabel\oldnewlabel
\fi}
\fi}
\global\let\hyper@last\relax 
\gdef\HyperFirstAtBeginDocument#1{#1}
\providecommand\HyField@AuxAddToFields[1]{}
\providecommand\HyField@AuxAddToCoFields[2]{}
\babel@aux{croatian}{}
\citation{bioinformatikaSkripta}
\citation{fmlrcArticle}
\citation{fmlrcArticle}
\citation{bioinformatikaSkripta}
\@writefile{toc}{\contentsline {chapter}{\numberline {1}Uvod}{1}{chapter.1}\protected@file@percent }
\@writefile{lof}{\addvspace {10\p@ }}
\@writefile{lot}{\addvspace {10\p@ }}
\citation{bioinformatikaSkripta}
\citation{fmlrcArticle}
\citation{bioinformatikaSkripta}
\citation{bioinformatikaSkripta}
\citation{fmlrcArticle}
\citation{fmlrcArticle}
\citation{fmlrcArticle}
\citation{fmlrcArticle}
\citation{fmlrcArticle}
\@writefile{lof}{\contentsline {figure}{\numberline {1.1}{\ignorespaces Implicitni de Bruijn grafovi\relax }}{4}{figure.caption.2}\protected@file@percent }
\providecommand*\caption@xref[2]{\@setref\relax\@undefined{#1}}
\newlabel{fig:implicitni_de_bruijn_graf}{{1.1}{4}{Implicitni de Bruijn grafovi\relax }{figure.caption.2}{}}
\citation{bioinformatikaSkripta}
\citation{bioinformatikaSkripta}
\@writefile{toc}{\contentsline {chapter}{\numberline {2}Sekvenciranje genoma}{5}{chapter.2}\protected@file@percent }
\@writefile{lof}{\addvspace {10\p@ }}
\@writefile{lot}{\addvspace {10\p@ }}
\@writefile{lof}{\contentsline {figure}{\numberline {2.1}{\ignorespaces Hijerarhijsko "shotgun" sekvenciranje\relax }}{5}{figure.caption.3}\protected@file@percent }
\newlabel{fig:hijerarhijsko_shotgun_sekvenciranje}{{2.1}{5}{Hijerarhijsko "shotgun" sekvenciranje\relax }{figure.caption.3}{}}
\citation{bioinformatikaSkripta}
\citation{bioinformatikaSkripta}
\citation{bioinformatikaSkripta}
\citation{bioinformatikaSkripta}
\citation{fmlrcArticle}
\@writefile{lof}{\contentsline {figure}{\numberline {2.2}{\ignorespaces "Shotgun" sekvenciranje\relax }}{6}{figure.caption.4}\protected@file@percent }
\newlabel{fig:shotgun_sekvenciranje}{{2.2}{6}{"Shotgun" sekvenciranje\relax }{figure.caption.4}{}}
\@writefile{lot}{\contentsline {table}{\numberline {2.1}{\ignorespaces Generacije uređaja za sekvenciranje \citep  {bioinformatikaSkripta}\relax }}{7}{table.caption.5}\protected@file@percent }
\newlabel{tbl:generacije_uredaja_za_sekvenciranje}{{2.1}{7}{Generacije uređaja za sekvenciranje \citep {bioinformatikaSkripta}\relax }{table.caption.5}{}}
\citation{bioinformatikaSkripta}
\citation{bioinformatikaSkripta}
\citation{bioinformatikaSkripta}
\citation{bioinformatikaSkripta}
\citation{bioinformatikaSkripta}
\@writefile{toc}{\contentsline {chapter}{\numberline {3}Sastavljanje genoma}{8}{chapter.3}\protected@file@percent }
\@writefile{lof}{\addvspace {10\p@ }}
\@writefile{lot}{\addvspace {10\p@ }}
\citation{fmlrcArticle}
\citation{bioinformatikaSkripta}
\citation{bioinformatikaSkripta}
\citation{bioinformatikaSkripta}
\citation{bioinformatikaSkripta}
\@writefile{toc}{\contentsline {section}{\numberline {3.1}De novo sastavljanje genoma}{9}{section.3.1}\protected@file@percent }
\citation{bioinformatikaSkripta}
\citation{bioinformatikaSkripta}
\@writefile{lof}{\contentsline {figure}{\numberline {3.1}{\ignorespaces Prikaz hijerarhijske strukture de novo sastavljanja genoma\relax }}{10}{figure.caption.6}\protected@file@percent }
\newlabel{fig:de_novo_sastavljanje_genoma_hijerarhijska_struktura}{{3.1}{10}{Prikaz hijerarhijske strukture de novo sastavljanja genoma\relax }{figure.caption.6}{}}
\citation{fmlrcArticle}
\citation{fmlrcArticle}
\citation{fmlrcArticle}
\citation{fmlrcArticle}
\citation{fmlrcArticle}
\@writefile{toc}{\contentsline {chapter}{\numberline {4}Hibridne metode ispravljanja}{11}{chapter.4}\protected@file@percent }
\@writefile{lof}{\addvspace {10\p@ }}
\@writefile{lot}{\addvspace {10\p@ }}
\citation{bioinformatikaSkripta}
\citation{bioinformatikaSkripta}
\@writefile{toc}{\contentsline {chapter}{\numberline {5}de Bruijn grafovi}{13}{chapter.5}\protected@file@percent }
\@writefile{lof}{\addvspace {10\p@ }}
\@writefile{lot}{\addvspace {10\p@ }}
\@writefile{lof}{\contentsline {figure}{\numberline {5.1}{\ignorespaces de Bruijn graf niza ACTCTCGA, k=3\relax }}{13}{figure.caption.7}\protected@file@percent }
\newlabel{fig:de_bruijn_graf_1}{{5.1}{13}{de Bruijn graf niza ACTCTCGA, k=3\relax }{figure.caption.7}{}}
\@writefile{lof}{\contentsline {figure}{\numberline {5.2}{\ignorespaces Komprimirani de Bruijn graf\relax }}{13}{figure.caption.8}\protected@file@percent }
\newlabel{fig:de_bruijn_graf_2}{{5.2}{13}{Komprimirani de Bruijn graf\relax }{figure.caption.8}{}}
\citation{fmlrcArticle}
\citation{fmIndexArticle}
\citation{fmlrcArticle}
\citation{bwtAndFmIndexPpt}
\citation{finnishBWT}
\citation{bioinformatikaSkripta}
\@writefile{toc}{\contentsline {chapter}{\numberline {6}FM-indeks}{15}{chapter.6}\protected@file@percent }
\@writefile{lof}{\addvspace {10\p@ }}
\@writefile{lot}{\addvspace {10\p@ }}
\citation{mergingOfMultiStringBwtsWithApplications}
\citation{bwtOfLargeStringCollectionsViaMerging}
\citation{lightweightBwtPpt}
\citation{bioinformatikaSkripta}
\citation{screwtapeZorkSAIS}
\citation{finnishInducedSorting}
\citation{bwtAndFmIndexPpt}
\citation{finnishBWT}
\citation{bioinformatikaSkripta}
\citation{bwtAndFmIndexPpt}
\citation{bwtAndFmIndexPpt}
\citation{bwtAndFmIndexPpt}
\@writefile{toc}{\contentsline {section}{\numberline {6.1}BWT}{16}{section.6.1}\protected@file@percent }
\citation{bwtAndFmIndexPpt}
\citation{bwtAndFmIndexPpt}
\citation{bwtAndFmIndexPpt}
\citation{bioinformatikaSkripta}
\@writefile{toc}{\contentsline {subsection}{\numberline {6.1.1}BWT i SA naivnom metodom konstrukcije}{17}{subsection.6.1.1}\protected@file@percent }
\@writefile{loa}{\contentsline {algorithm}{\numberline {1}{\ignorespaces Konstrukcija BWT i SA naivnim putem \citep  {bwtAndFmIndexPpt}\relax }}{17}{algorithm.1}\protected@file@percent }
\newlabel{algo:naive_sa_and_bwt_construction}{{1}{17}{Konstrukcija BWT i SA naivnim putem \citep {bwtAndFmIndexPpt}\relax }{algorithm.1}{}}
\citation{fmlrcArticle}
\citation{screwtapeZorkSAIS}
\citation{bioinformatikaSkripta}
\@writefile{lof}{\contentsline {figure}{\numberline {6.1}{\ignorespaces Formiranje rotacija (ne-sortirane) za niz S\relax }}{18}{figure.caption.9}\protected@file@percent }
\newlabel{fig:bwt_sa_primjer_1}{{6.1}{18}{Formiranje rotacija (ne-sortirane) za niz S\relax }{figure.caption.9}{}}
\@writefile{toc}{\contentsline {subsection}{\numberline {6.1.2}BWT i SA pomoću SA-IS algoritma}{18}{subsection.6.1.2}\protected@file@percent }
\citation{bioinformatikaSkripta}
\citation{bioinformatikaSkripta}
\@writefile{lof}{\contentsline {figure}{\numberline {6.2}{\ignorespaces Sortirane rotacije za niz S\relax }}{19}{figure.caption.10}\protected@file@percent }
\newlabel{fig:bwt_sa_primjer_2}{{6.2}{19}{Sortirane rotacije za niz S\relax }{figure.caption.10}{}}
\@writefile{lof}{\contentsline {figure}{\numberline {6.3}{\ignorespaces Rezultantni BWT za niz S\relax }}{19}{figure.caption.11}\protected@file@percent }
\newlabel{fig:bwt_sa_primjer_3}{{6.3}{19}{Rezultantni BWT za niz S\relax }{figure.caption.11}{}}
\citation{bioinformatikaSkripta}
\citation{bioinformatikaSkripta}
\@writefile{lof}{\contentsline {figure}{\numberline {6.4}{\ignorespaces SA polje prikazano skupa s pripadajućim sufiksima\relax }}{20}{figure.caption.12}\protected@file@percent }
\newlabel{fig:bwt_sa_primjer_4}{{6.4}{20}{SA polje prikazano skupa s pripadajućim sufiksima\relax }{figure.caption.12}{}}
\citation{bioinformatikaSkripta}
\citation{bioinformatikaSkripta}
\citation{bioinformatikaSkripta}
\citation{bioinformatikaSkripta}
\citation{bioinformatikaSkripta}
\@writefile{lof}{\contentsline {figure}{\numberline {6.5}{\ignorespaces Formiranje T polja - S i L tipovi znakova\relax }}{21}{figure.caption.13}\protected@file@percent }
\newlabel{fig:sa_is_t_polje_primjer}{{6.5}{21}{Formiranje T polja - S i L tipovi znakova\relax }{figure.caption.13}{}}
\citation{bioinformatikaSkripta}
\citation{bioinformatikaSkripta}
\citation{bioinformatikaSkripta}
\citation{bioinformatikaSkripta}
\citation{bioinformatikaSkripta}
\citation{bioinformatikaSkripta}
\citation{bioinformatikaSkripta}
\citation{bioinformatikaSkripta}
\citation{bioinformatikaSkripta}
\citation{bioinformatikaSkripta}
\citation{bioinformatikaSkripta}
\@writefile{loa}{\contentsline {algorithm}{\numberline {2}{\ignorespaces Konstrukcija SA sa SA-IS algoritmom, visoka razina apstrakcije \citep  {bioinformatikaSkripta}\relax }}{23}{algorithm.2}\protected@file@percent }
\newlabel{algo:sa_is_sa_construction}{{2}{23}{Konstrukcija SA sa SA-IS algoritmom, visoka razina apstrakcije \citep {bioinformatikaSkripta}\relax }{algorithm.2}{}}
\citation{bioinformatikaSkripta}
\citation{fmlrcArticle}
\@writefile{lof}{\contentsline {figure}{\numberline {6.6}{\ignorespaces SA/B polje skupa s bucketima i pripadajućim pokazivačima za znakovni niz "ACCGTAATTT"\relax }}{24}{figure.caption.14}\protected@file@percent }
\newlabel{fig:sa_buckets_1}{{6.6}{24}{SA/B polje skupa s bucketima i pripadajućim pokazivačima za znakovni niz "ACCGTAATTT"\relax }{figure.caption.14}{}}
\@writefile{toc}{\contentsline {subsection}{\numberline {6.1.3}Algoritam konstrukcije BWT iz SA}{24}{subsection.6.1.3}\protected@file@percent }
\@writefile{loa}{\contentsline {algorithm}{\numberline {3}{\ignorespaces Konstrukcija BWT iz SA \citep  {bioinformatikaSkripta}\relax }}{24}{algorithm.3}\protected@file@percent }
\newlabel{algo:bwt_construction_from_sa}{{3}{24}{Konstrukcija BWT iz SA \citep {bioinformatikaSkripta}\relax }{algorithm.3}{}}
\@writefile{toc}{\contentsline {section}{\numberline {6.2}FM-indeks u dubinu}{24}{section.6.2}\protected@file@percent }
\citation{bwtAndFmIndexPpt}
\citation{bioinformatikaSkripta}
\citation{bwtAndFmIndexPpt}
\citation{bwtAndFmIndexPpt}
\citation{bioinformatikaSkripta}
\@writefile{lof}{\contentsline {figure}{\numberline {6.7}{\ignorespaces Sortirane rotacije za "ACCGTAATTT"\relax }}{26}{figure.caption.15}\protected@file@percent }
\newlabel{fig:bwt_sortirane_rotacije_primjer_1}{{6.7}{26}{Sortirane rotacije za "ACCGTAATTT"\relax }{figure.caption.15}{}}
\@writefile{loa}{\contentsline {algorithm}{\numberline {4}{\ignorespaces LF Mapping algoritam\relax }}{26}{algorithm.4}\protected@file@percent }
\newlabel{algo:lf_mapping}{{4}{26}{LF Mapping algoritam\relax }{algorithm.4}{}}
\@writefile{lof}{\contentsline {figure}{\numberline {6.8}{\ignorespaces Intuicija LF-Mappinga\relax }}{27}{figure.caption.16}\protected@file@percent }
\newlabel{fig:lf_mapping_primjer_1}{{6.8}{27}{Intuicija LF-Mappinga\relax }{figure.caption.16}{}}
\@writefile{lot}{\contentsline {table}{\numberline {6.1}{\ignorespaces Abeceda i njena reprezentacija brojevima u programu\relax }}{27}{table.caption.17}\protected@file@percent }
\newlabel{tbl:abeceda_reprezentacija_brojevima}{{6.1}{27}{Abeceda i njena reprezentacija brojevima u programu\relax }{table.caption.17}{}}
\@writefile{loa}{\contentsline {algorithm}{\numberline {5}{\ignorespaces BW Count - upit nad brojem pojavljivanja k-mera\relax }}{28}{algorithm.5}\protected@file@percent }
\newlabel{algo:lf_mapping}{{5}{28}{BW Count - upit nad brojem pojavljivanja k-mera\relax }{algorithm.5}{}}
\citation{fmlrcArticle}
\citation{fmlrcArticle}
\gdef \LT@i {\LT@entry 
    {1}{68.9055pt}\LT@entry 
    {1}{296.52756pt}\LT@entry 
    {1}{68.9055pt}}
\@writefile{toc}{\contentsline {chapter}{\numberline {7}FMLRC}{30}{chapter.7}\protected@file@percent }
\@writefile{lof}{\addvspace {10\p@ }}
\@writefile{lot}{\addvspace {10\p@ }}
\@writefile{toc}{\contentsline {section}{\numberline {7.1}Pregled s visoke razine apstrakcije}{30}{section.7.1}\protected@file@percent }
\@writefile{lot}{\contentsline {table}{\numberline {7.1}{\ignorespaces Parametri FMLRC algoritma\relax }}{30}{table.7.1}\protected@file@percent }
\newlabel{tbl:parametri_fmlrc_algoritma}{{7.1}{30}{Parametri FMLRC algoritma\relax }{table.7.1}{}}
\citation{fmlrcArticle}
\@writefile{toc}{\contentsline {section}{\numberline {7.2}Proces ispravljanja s k-merom u dubinu}{34}{section.7.2}\protected@file@percent }
\@writefile{lof}{\contentsline {figure}{\numberline {7.1}{\ignorespaces Prikaz pomoćnog prozora kako se miče kroz "dugo" očitanje\relax }}{36}{figure.caption.18}\protected@file@percent }
\newlabel{fig:fmlrc_pomicni_prozor_1}{{7.1}{36}{Prikaz pomoćnog prozora kako se miče kroz "dugo" očitanje\relax }{figure.caption.18}{}}
\@writefile{lof}{\contentsline {figure}{\numberline {7.2}{\ignorespaces Primjer reverznog komplementiranja\relax }}{38}{figure.caption.19}\protected@file@percent }
\newlabel{fig:rev_komp_1}{{7.2}{38}{Primjer reverznog komplementiranja\relax }{figure.caption.19}{}}
\@writefile{lof}{\contentsline {figure}{\numberline {7.3}{\ignorespaces Prikaz "seed"/"anchor" k-mera te podjele genoma na regije\relax }}{38}{figure.caption.20}\protected@file@percent }
\newlabel{fig:graf_regije_algoritmi}{{7.3}{38}{Prikaz "seed"/"anchor" k-mera te podjele genoma na regije\relax }{figure.caption.20}{}}
\citation{fmlrcArticle}
\@writefile{lof}{\contentsline {figure}{\numberline {7.4}{\ignorespaces Prikaz klasifikacije k-mera i regija u solidne ili slabe uz kretanje preko dugog očitanja\relax }}{39}{figure.caption.21}\protected@file@percent }
\newlabel{fig:fmlrc_pomicni_prozor_2}{{7.4}{39}{Prikaz klasifikacije k-mera i regija u solidne ili slabe uz kretanje preko dugog očitanja\relax }{figure.caption.21}{}}
\citation{fmlrcArticle}
\@writefile{lof}{\contentsline {figure}{\numberline {7.5}{\ignorespaces Mid-point algoritam\relax }}{40}{figure.caption.22}\protected@file@percent }
\citation{fmlrcArticle}
\@writefile{lof}{\contentsline {figure}{\numberline {7.6}{\ignorespaces Proces produživanja mosta i biranja pomičnog prozora s najvećom frekvencijom pojavljivanja u FM Indeksu skupa kratkih očitanja\relax }}{41}{figure.caption.23}\protected@file@percent }
\newlabel{fig:fmlrc_produzivanje_mosta}{{7.6}{41}{Proces produživanja mosta i biranja pomičnog prozora s najvećom frekvencijom pojavljivanja u FM Indeksu skupa kratkih očitanja\relax }{figure.caption.23}{}}
\citation{fmlrcArticle}
\citation{editDistanceGfg}
\citation{editDistanceGfg}
\citation{EColiShortReads}
\citation{EColiLongReads}
\citation{genomesOnlineNihNcbi}
\@writefile{toc}{\contentsline {chapter}{\numberline {8}Analiza i rezultati}{45}{chapter.8}\protected@file@percent }
\@writefile{lof}{\addvspace {10\p@ }}
\@writefile{lot}{\addvspace {10\p@ }}
\@writefile{lof}{\contentsline {figure}{\numberline {8.1}{\ignorespaces 32 dugačka očitanja prije ispravljanja\relax }}{46}{figure.caption.24}\protected@file@percent }
\newlabel{fig:FMLRC_primjer_1}{{8.1}{46}{32 dugačka očitanja prije ispravljanja\relax }{figure.caption.24}{}}
\@writefile{lof}{\contentsline {figure}{\numberline {8.2}{\ignorespaces 32 dugačka očitanja poslije ispravljanja\relax }}{47}{figure.caption.25}\protected@file@percent }
\newlabel{fig:FMLRC_primjer_2}{{8.2}{47}{32 dugačka očitanja poslije ispravljanja\relax }{figure.caption.25}{}}
\@writefile{lof}{\contentsline {figure}{\numberline {8.3}{\ignorespaces Izgradnja FM-indeksa - terminal\relax }}{49}{figure.caption.26}\protected@file@percent }
\newlabel{fig:BWT_primjer_1_Exec}{{8.3}{49}{Izgradnja FM-indeksa - terminal\relax }{figure.caption.26}{}}
\@writefile{lof}{\contentsline {figure}{\numberline {8.4}{\ignorespaces Izgradnja FM-indeksa - računalni resursi\relax }}{50}{figure.caption.27}\protected@file@percent }
\newlabel{fig:BWT_primjer_1_Sys}{{8.4}{50}{Izgradnja FM-indeksa - računalni resursi\relax }{figure.caption.27}{}}
\@writefile{lof}{\contentsline {figure}{\numberline {8.5}{\ignorespaces Provedba FMLRC algoritma - računalni resursi\relax }}{51}{figure.caption.28}\protected@file@percent }
\newlabel{fig:FMLRC_primjer_3_Sys}{{8.5}{51}{Provedba FMLRC algoritma - računalni resursi\relax }{figure.caption.28}{}}
\@writefile{lof}{\contentsline {figure}{\numberline {8.6}{\ignorespaces Provedba FMLRC algoritma - terminal\relax }}{52}{figure.caption.29}\protected@file@percent }
\newlabel{fig:FMLRC_primjer_3_Exec}{{8.6}{52}{Provedba FMLRC algoritma - terminal\relax }{figure.caption.29}{}}
\@writefile{lof}{\contentsline {figure}{\numberline {8.7}{\ignorespaces Provedba FMLRC algoritma - paralelizacija i iskorištenje višedretvenosti\relax }}{53}{figure.caption.30}\protected@file@percent }
\newlabel{fig:FMLRC_primjer_4_Exec}{{8.7}{53}{Provedba FMLRC algoritma - paralelizacija i iskorištenje višedretvenosti\relax }{figure.caption.30}{}}
\@writefile{lof}{\contentsline {figure}{\numberline {8.8}{\ignorespaces Provedba FMLRC algoritma - dugačka očitanja prije ispravljanja\relax }}{54}{figure.caption.31}\protected@file@percent }
\newlabel{fig:FMLRC_primjer_6}{{8.8}{54}{Provedba FMLRC algoritma - dugačka očitanja prije ispravljanja\relax }{figure.caption.31}{}}
\@writefile{lof}{\contentsline {figure}{\numberline {8.9}{\ignorespaces Provedba FMLRC algoritma - rezultat ispravka E. coli genoma\relax }}{55}{figure.caption.32}\protected@file@percent }
\newlabel{fig:FMLRC_primjer_5}{{8.9}{55}{Provedba FMLRC algoritma - rezultat ispravka E. coli genoma\relax }{figure.caption.32}{}}
\@writefile{lof}{\contentsline {figure}{\numberline {8.10}{\ignorespaces Razlike u dugim očitanjima prije i poslije ispravljanja - primjer 1\relax }}{55}{figure.caption.33}\protected@file@percent }
\newlabel{fig:diff_1}{{8.10}{55}{Razlike u dugim očitanjima prije i poslije ispravljanja - primjer 1\relax }{figure.caption.33}{}}
\@writefile{lof}{\contentsline {figure}{\numberline {8.11}{\ignorespaces Razlike u dugim očitanjima prije i poslije ispravljanja - primjer 2\relax }}{55}{figure.caption.34}\protected@file@percent }
\newlabel{fig:diff_2}{{8.11}{55}{Razlike u dugim očitanjima prije i poslije ispravljanja - primjer 2\relax }{figure.caption.34}{}}
\@writefile{lof}{\contentsline {figure}{\numberline {8.12}{\ignorespaces Razlike u dugim očitanjima prije i poslije ispravljanja - primjer 3 - rep dugog očitanja\relax }}{56}{figure.caption.35}\protected@file@percent }
\newlabel{fig:diff_3}{{8.12}{56}{Razlike u dugim očitanjima prije i poslije ispravljanja - primjer 3 - rep dugog očitanja\relax }{figure.caption.35}{}}
\@writefile{toc}{\contentsline {chapter}{\numberline {9}Zaključak}{57}{chapter.9}\protected@file@percent }
\@writefile{lof}{\addvspace {10\p@ }}
\@writefile{lot}{\addvspace {10\p@ }}
\bibdata{literatura}
\bibcite{EColiLongReads}{{1}{a}{{ECo}}{{}}}
\bibcite{EColiShortReads}{{2}{b}{{ECo}}{{}}}
\bibcite{editDistanceGfg}{{3}{}{{edi}}{{}}}
\bibcite{finnishBWT}{{4}{a}{{fin}}{{}}}
\bibcite{finnishInducedSorting}{{5}{b}{{fin}}{{}}}
\bibcite{genomesOnlineNihNcbi}{{6}{}{{gen}}{{}}}
\bibcite{screwtapeZorkSAIS}{{7}{}{{scr}}{{}}}
\bibcite{lightweightBwtPpt}{{8}{2011}{{Bauer et~al.}}{{Bauer, Cox, i Rosone}}}
\bibcite{fmIndexArticle}{{9}{}{{Ferragina i Manzini}}{{}}}
\bibcite{bwtOfLargeStringCollectionsViaMerging}{{10}{2014{a}}{{Holt i McMillan}}{{}}}
\@writefile{toc}{\contentsline {chapter}{Literatura}{59}{chapter*.36}\protected@file@percent }
\bibcite{mergingOfMultiStringBwtsWithApplications}{{11}{2014{b}}{{Holt i McMillan}}{{}}}
\bibcite{bwtAndFmIndexPpt}{{12}{}{{Langmead}}{{}}}
\bibcite{fmlrcArticle}{{13}{2018}{{Wang et~al.}}{{Wang, Holt, McMillan, i Jones}}}
\bibcite{bioinformatikaSkripta}{{14}{2013}{{Šikić i Domazet-Lošo}}{{}}}
\bibstyle{fer}
\gdef \@abspage@last{64}
